<?xml version="1.0" encoding="UTF-8"?>
<session version="1.0">
<refactoring accessors="true" comment="Delete element from project &apos;7_1_JPA_DB_CONFIG&apos;&#x0A;- Original project: &apos;7_1_JPA_DB_CONFIG&apos;&#x0A;- Original element: &apos;net.fuhrparkservice.Main.java&apos;" description="Delete element" element1="/test&lt;net.fuhrparkservice{Main.java" elements="1" flags="589830" id="org.eclipse.jdt.ui.delete" resources="0" stamp="1443373313679" subPackages="false" version="1.0"/>
</session>