<?xml version="1.0" encoding="UTF-8"?>
<session version="1.0">
<refactoring comment="Extract local variable &apos;asList&apos; from expression &apos;Arrays.asList(&quot;München&quot;,&quot;Stuttgart&quot;)&apos;&#x0A;- Original project: &apos;8_04_EJBQL_WhereClause&apos;&#x0A;- Variable name: &apos;asList&apos;&#x0A;- Destination method: &apos;net.fuhrparkservice.TestQuery.testQueryForFilialeNichtInStuttgartUndMuenchen_MitINOperator()&apos;&#x0A;- Variable expression: &apos;Arrays.asList(&quot;München&quot;,&quot;Stuttgart&quot;)&apos;&#x0A;- Replace occurrences of expression with variable" description="Extract local variable &apos;asList&apos;" final="false" id="org.eclipse.jdt.ui.extract.temp" input="/test&lt;net.fuhrparkservice{TestQuery.java" name="asList" replace="true" selection="2157 37" stamp="1416577150273" version="1.0"/>
</session>