<?xml version="1.0" encoding="UTF-8"?>
<session version="1.0">
<refactoring comment="Copy element &apos;log4j.properties&apos; to &apos;7_1_JPA_DB_CONFIG_Loesung/src&apos;&#x0A;- Original project: &apos;7_0_Basic_Project&apos;&#x0A;- Destination element: &apos;7_1_JPA_DB_CONFIG_Loesung/src&apos;&#x0A;- Original element: &apos;log4j.properties&apos;" description="Copy file" destination="=7_1_JPA_DB_CONFIG_Loesung/src" element1="log4j.properties" files="1" flags="589830" folders="0" id="org.eclipse.jdt.ui.copy" policy="org.eclipse.jdt.ui.copyResources" stamp="1415104359324" units="0" version="1.0"/>
</session>